A,A,A,A,A,A,A,A,A,A,A,A,A,A,B,B,B,A,B,A,A,A,A,A,A,A,A,A,A,A
A,A,A,A,A,A,B,A,A,A,A,A,A,A,A,A,B,B,B,B,A,A,A,A,A,A,B,B,A,A
A,A,A,A,A,B,G,B,B,A,A,B,B,B,B,B,B,B,B,B,B,A,A,A,B,B,D,G,B,A
A,A,A,A,A,B,G,D,D,B,B,A,A,B,B,B,B,B,B,B,B,A,A,B,D,D,G,G,B,A
A,A,A,A,A,B,G,B,B,D,D,B,B,B,B,B,B,B,B,B,B,A,B,D,D,B,G,F,B,A
A,A,A,A,A,B,G,G,B,D,D,B,B,E,E,D,D,B,B,B,B,B,D,D,D,B,G,F,B,A
A,A,A,A,A,B,F,G,G,B,D,B,E,D,D,D,D,D,B,B,B,D,D,B,B,G,F,F,B,A
A,A,A,A,A,B,F,F,G,G,B,E,D,B,B,B,D,D,D,B,D,D,D,D,B,F,F,F,B,A
A,A,A,A,A,A,B,F,F,G,E,E,D,D,D,D,D,D,D,D,D,D,B,B,D,B,B,B,A,A
A,A,A,A,A,A,A,B,B,B,E,D,D,D,B,B,D,D,D,D,D,D,D,D,B,B,A,A,A,A
A,A,A,A,A,A,A,A,A,B,D,D,D,B,B,C,B,D,D,D,D,D,D,B,C,C,B,A,A,A
A,A,A,A,A,A,A,A,B,E,D,D,B,B,C,C,C,B,D,D,D,D,D,B,C,C,B,A,A,A
A,A,A,A,A,A,A,A,B,E,D,D,B,B,B,C,C,B,D,D,D,D,D,B,B,C,B,A,B,A
A,A,A,A,A,A,A,A,B,E,D,D,B,B,B,B,B,B,D,D,D,D,D,B,B,B,B,A,B,A
A,A,A,A,A,A,A,A,B,E,D,D,D,D,B,B,B,C,B,D,D,B,B,B,B,B,B,B,C,B
A,A,A,A,A,A,B,B,B,E,D,D,D,D,D,B,B,C,B,D,B,F,F,F,B,D,D,B,C,B
A,A,A,A,A,A,A,A,B,E,D,D,D,D,D,B,C,C,H,B,F,F,F,F,F,B,D,B,H,B
B,B,A,A,A,B,B,B,B,B,E,D,D,D,D,B,H,H,H,B,F,B,F,B,F,B,D,B,B,A
B,B,B,A,A,A,B,E,E,B,E,D,D,D,D,D,B,B,B,B,F,F,F,F,F,B,D,D,B,A
A,B,B,B,A,B,E,E,E,E,B,E,E,D,D,D,D,D,D,D,B,B,B,B,B,D,B,B,A,A
A,A,A,B,A,B,E,D,E,E,E,B,E,E,D,D,D,D,D,D,D,D,D,D,D,B,A,A,A,A
A,A,A,B,B,E,E,D,D,E,E,E,B,B,B,D,D,D,D,D,D,D,B,B,B,A,A,A,A,A
A,A,A,A,B,E,D,D,D,D,D,D,D,D,D,B,B,B,B,B,B,B,A,A,A,A,A,A,A,A
A,A,A,A,B,E,D,D,D,D,D,D,D,D,D,D,G,G,G,G,G,D,B,A,A,A,A,A,A,A
A,A,A,A,B,E,E,D,D,D,D,D,D,D,D,D,G,F,F,F,F,D,B,A,A,A,A,A,A,A
A,A,A,A,A,B,E,D,D,G,D,D,B,D,D,D,G,F,F,F,B,D,B,A,A,A,A,A,A,A
A,A,A,A,A,B,E,D,D,G,G,G,B,B,D,D,B,G,G,B,D,D,B,A,A,A,A,A,A,A
A,A,A,A,A,A,B,D,D,B,B,B,B,B,D,D,B,B,B,B,G,B,A,A,A,A,A,A,A,A
B,B,B,B,B,B,B,H,H,B,B,B,B,B,H,H,B,B,B,B,H,B,B,B,B,B,B,B,B,B
A,A,A,A,B,B,B,B,B,B,B,B,B,B,B,B,B,B,B,B,B,B,A,A,A,A,A,A,A,A
